{
  "files": {
    "main.css": "./app/static/css/main.6f2d5936.chunk.css",
    "main.js": "./app/static/js/main.66be2d1c.chunk.js",
    "main.js.map": "./app/static/js/main.66be2d1c.chunk.js.map",
    "runtime-main.js": "./app/static/js/runtime-main.a23d81e8.js",
    "runtime-main.js.map": "./app/static/js/runtime-main.a23d81e8.js.map",
    "static/css/2.2049195c.chunk.css": "./app/static/css/2.2049195c.chunk.css",
    "static/js/2.b8a4b0b9.chunk.js": "./app/static/js/2.b8a4b0b9.chunk.js",
    "static/js/2.b8a4b0b9.chunk.js.map": "./app/static/js/2.b8a4b0b9.chunk.js.map",
    "index.html": "./app/index.html",
    "precache-manifest.3406fb2b382308a13d2697828dadbd33.js": "./app/precache-manifest.3406fb2b382308a13d2697828dadbd33.js",
    "service-worker.js": "./app/service-worker.js",
    "static/css/2.2049195c.chunk.css.map": "./app/static/css/2.2049195c.chunk.css.map",
    "static/css/main.6f2d5936.chunk.css.map": "./app/static/css/main.6f2d5936.chunk.css.map",
    "static/js/2.b8a4b0b9.chunk.js.LICENSE.txt": "./app/static/js/2.b8a4b0b9.chunk.js.LICENSE.txt",
    "static/media/anychart-font.css": "./app/static/media/anychart.d1d6bb79.eot"
  },
  "entrypoints": [
    "static/js/runtime-main.a23d81e8.js",
    "static/css/2.2049195c.chunk.css",
    "static/js/2.b8a4b0b9.chunk.js",
    "static/css/main.6f2d5936.chunk.css",
    "static/js/main.66be2d1c.chunk.js"
  ]
}