Host: vebinar.fin-plan.org
Date: 2020-08-04 15:58:59
Module: 
$PROP = Array
(
    [IP] => 85.140.0.86
    [CITY] => Kazan’
    [HOURS] => Europe/Moscow
    [NAME] => Ольга
    [EMAIL] => Salanova1976@mail.ru
    [PHONE] => +79879712152
    [ITEM] => Антикризисный портфель 2020  06.08.2020 19:30:00
    [USER] => 16178
    [DATE_CREATE] => 04.08.2020 15:58:58
    [DATE_UPDATE] => 04.08.2020 15:58:59
)

    CrmAdder::addSimple < CrmAdder::addExtended < CrmAdder::add < include_once < require
	/var/www/bitrix/data/www/fin-plan.org/local/php_interface/classes/crm/CrmAdder.php:94
	/var/www/bitrix/data/www/fin-plan.org/local/php_interface/classes/crm/CrmAdder.php:35
	/var/www/bitrix/data/www/fin-plan.org/bitrix/templates/study_landing/header.php:24
	/var/www/bitrix/data/www/fin-plan.org/bitrix/modules/main/include/prolog_after.php:106
	/var/www/bitrix/data/www/fin-plan.org/bitrix/modules/main/include/prolog.php:11
----------
Host: vebinar.fin-plan.org
Date: 2020-08-04 15:58:59
Module: 
$arLog = Array
(
    [arUserPromo1] => Array
        (
            [PROMOCODE] => 
            [PROMOCODE_STATUS] => 
            [REFERAL] => 
        )

    [statusId] => 88
    [userID] => 16178
    [USER_EMAIL] => Salanova1976@mail.ru
    [arUser] => Array
        (
            [ID] => 16178
            [TIMESTAMP_X] => 04.08.2020 15:58:58
            [LOGIN] => Salanova1976@mail.ru
            [PASSWORD] => baYcggqz74540aecb29a3d3fe39a69f3d9ee676c
            [CHECKWORD] => r2MEbzlRd6fa5148ed0d498de70ea5d923585803
            [ACTIVE] => Y
            [NAME] => Ольга
            [LAST_NAME] => 
            [EMAIL] => Salanova1976@mail.ru
            [LAST_LOGIN] => 
            [DATE_REGISTER] => 04.08.2020 15:58:58
            [LID] => 
            [PERSONAL_PROFESSION] => 
            [PERSONAL_WWW] => 
            [PERSONAL_ICQ] => 
            [PERSONAL_GENDER] => 
            [PERSONAL_BIRTHDATE] => 
            [PERSONAL_PHOTO] => 
            [PERSONAL_PHONE] => +79879712152
            [PERSONAL_FAX] => 
            [PERSONAL_MOBILE] => 
            [PERSONAL_PAGER] => 
            [PERSONAL_STREET] => 
            [PERSONAL_MAILBOX] => 
            [PERSONAL_CITY] => 
            [PERSONAL_STATE] => 
            [PERSONAL_ZIP] => 
            [PERSONAL_COUNTRY] => 
            [PERSONAL_NOTES] => 
            [WORK_COMPANY] => 
            [WORK_DEPARTMENT] => 
            [WORK_POSITION] => 
            [WORK_WWW] => 
            [WORK_PHONE] => 
            [WORK_FAX] => 
            [WORK_PAGER] => 
            [WORK_STREET] => 
            [WORK_MAILBOX] => 
            [WORK_CITY] => 
            [WORK_STATE] => 
            [WORK_ZIP] => 
            [WORK_COUNTRY] => 
            [WORK_PROFILE] => 
            [WORK_LOGO] => 
            [WORK_NOTES] => 
            [ADMIN_NOTES] => 
            [STORED_HASH] => 
            [XML_ID] => 
            [PERSONAL_BIRTHDAY] => 
            [EXTERNAL_AUTH_ID] => 
            [CHECKWORD_TIME] => 2020-08-04 15:58:58
            [SECOND_NAME] => 
            [CONFIRM_CODE] => 
            [LOGIN_ATTEMPTS] => 
            [LAST_ACTIVITY_DATE] => 
            [AUTO_TIME_ZONE] => 
            [TIME_ZONE] => 
            [TIME_ZONE_OFFSET] => 
            [TITLE] => 
            [BX_USER_ID] => 
            [LANGUAGE_ID] => 
            [IS_ONLINE] => N
            [UF_RADAR_ACCESS] => 
            [UF_INVEST_SUM] => 
            [UF_MONTH_AMOUNT] => 
            [UF_PORTFOLIO_CNT] => 
            [UF_PERSONAL_PROMO] => 
            [UF_PARTNER_STATUS] => 
            [UF_REFERAL_USER] => 
        )

    [USER_ID] => 
    [arUserPromo2] => Array
        (
            [PROMOCODE] => 
            [PROMOCODE_STATUS] => 
            [REFERAL] => 
        )

    [promoVal] => 
)

    Promocodes::updateUserReferalStatusCRM < CrmAdder::addSimple < CrmAdder::addExtended < CrmAdder::add < include_once
	/var/www/bitrix/data/www/fin-plan.org/local/php_interface/classes/crm/CrmAdder.php:316
	/var/www/bitrix/data/www/fin-plan.org/local/php_interface/classes/crm/CrmAdder.php:94
	/var/www/bitrix/data/www/fin-plan.org/local/php_interface/classes/crm/CrmAdder.php:35
	/var/www/bitrix/data/www/fin-plan.org/bitrix/templates/study_landing/header.php:24
	/var/www/bitrix/data/www/fin-plan.org/bitrix/modules/main/include/prolog_after.php:106
----------
